{
        "aws_settings": {
        "uploads": {
            "bucket": "ts-files-test"
        }
},
"insights-json-lambda":"insights-json-lambda",
"tru-audience-api-fe":"https://tap-fe-api-test.tru-signal.com"

}
